{
  "env_variables": [
    "VM_ENVIRONMENT ubuntu-precise.dev"
  ],
  "ip": "10.0.0.5",
  "synced_folders": [
    {
      "host_path": "../",
      "guest_path": "/vagrant/www",
      "type": "nfs",
      "mount_options": [
        "vers=3",
        "udp"
      ]
    },
    {
      "host_path": "./puppet",
      "guest_path": "/vagrant/puppet",
      "type": "nfs",
      "mount_options": [
        "vers=3",
        "udp"
      ]
    }
  ]
}