{
  "serveraliases": [
    "www.google.com",
    "google.com"
  ],
  "hostname": "google.local.com",
  "env_variables": [
    "VM_BOX LOCAL"
  ],
  "php": {
    "modules": [
      "curl",
      "gd",
      "imagick",
      "mysql",
      "cli",
      "intl",
      "mcrypt"
    ],
    "settings": [
      "date.timezone = Europe/Berlin",
      "display_errors = On",
      "error_reporting = 6143",
      "memory_limit = 1024M",
      "max_execution_time = 1000",
      "max_input_time = 1000",
      "upload_max_filesize = 100M",
      "post_max_size = 100M",
      "realpath_cache_size = 1024KB",
      "upload_tmp_dir = /var/www/tmp"
    ]
  },
  "email": "info@impresso-media.de",
  "mysql": {
    "user": "root",
    "password": "p45sw0rd",
    "database": "db01"
  },
  "nginx": {
    "name": "static.dev",
    "port": "81"
  }
}